<?xml version="1.0" encoding="UTF-8" standalone="no"?>
<!-- Created with Inkscape (http://www.inkscape.org/) -->

<svg
   width="196.32033mm"
   height="76.685722mm"
   viewBox="0 0 196.32033 76.685722"
   version="1.1"
   id="svg1"
   inkscape:version="1.3.2 (091e20ef0f, 2023-11-25)"
   sodipodi:docname="components1.svg"
   xmlns:inkscape="http://www.inkscape.org/namespaces/inkscape"
   xmlns:sodipodi="http://sodipodi.sourceforge.net/DTD/sodipodi-0.dtd"
   xmlns="http://www.w3.org/2000/svg"
   xmlns:svg="http://www.w3.org/2000/svg">
  <sodipodi:namedview
     id="namedview1"
     pagecolor="#ffffff"
     bordercolor="#666666"
     borderopacity="1.0"
     inkscape:showpageshadow="2"
     inkscape:pageopacity="0.0"
     inkscape:pagecheckerboard="0"
     inkscape:deskcolor="#d1d1d1"
     inkscape:document-units="mm"
     inkscape:zoom="0.71713664"
     inkscape:cx="325.60043"
     inkscape:cy="484.56595"
     inkscape:window-width="1920"
     inkscape:window-height="1011"
     inkscape:window-x="0"
     inkscape:window-y="0"
     inkscape:window-maximized="1"
     inkscape:current-layer="layer1" />
  <defs
     id="defs1" />
  <g
     inkscape:label="Layer 1"
     inkscape:groupmode="layer"
     id="layer1"
     transform="translate(-18.74453,-20.282836)">
    <text
       xml:space="preserve"
       style="font-style:normal;font-weight:normal;font-size:10.5833px;line-height:1.25;font-family:sans-serif;letter-spacing:0px;word-spacing:0px;fill:#000000;fill-opacity:1;stroke:none;stroke-width:0.264583"
       x="24.037573"
       y="47.353111"
       id="text1"><tspan
         sodipodi:role="line"
         style="stroke-width:0.264583"
         x="24.037573"
         y="47.353111"
         id="tspan2">g-ir-scanner</tspan><tspan
         sodipodi:role="line"
         style="stroke-width:0.264583"
         x="24.037573"
         y="60.582237"
         id="tspan3">libgirepository</tspan><tspan
         sodipodi:role="line"
         style="stroke-width:0.264583"
         x="24.037573"
         y="73.811363"
         id="tspan4">g-ir-compiler</tspan></text>
    <text
       xml:space="preserve"
       style="font-style:normal;font-weight:normal;font-size:10.5833px;line-height:1.25;font-family:sans-serif;letter-spacing:0px;word-spacing:0px;fill:#000000;fill-opacity:1;stroke:none;stroke-width:0.264583"
       x="24.037573"
       y="28.323664"
       id="text5"><tspan
         sodipodi:role="line"
         id="tspan5"
         style="stroke-width:0.264583"
         x="24.037573"
         y="28.323664">gobject-introspection</tspan></text>
    <text
       xml:space="preserve"
       style="font-style:normal;font-weight:normal;font-size:10.5833px;line-height:1.25;font-family:sans-serif;letter-spacing:0px;word-spacing:0px;fill:#000000;fill-opacity:1;stroke:none;stroke-width:0.264583"
       x="160.55984"
       y="28.323664"
       id="text6"><tspan
         sodipodi:role="line"
         id="tspan6"
         style="stroke-width:0.264583"
         x="160.55984"
         y="28.323664">GLib</tspan></text>
    <text
       xml:space="preserve"
       style="font-style:normal;font-weight:normal;font-size:10.5833px;line-height:1.25;font-family:sans-serif;letter-spacing:0px;word-spacing:0px;fill:#000000;fill-opacity:1;stroke:none;stroke-width:0.264583"
       x="160.55984"
       y="47.353111"
       id="text7"><tspan
         sodipodi:role="line"
         id="tspan7"
         style="stroke-width:0.264583"
         x="160.55984"
         y="47.353111">GLib</tspan><tspan
         sodipodi:role="line"
         style="stroke-width:0.264583"
         x="160.55984"
         y="60.582237"
         id="tspan8">GObject</tspan><tspan
         sodipodi:role="line"
         style="stroke-width:0.264583"
         x="160.55984"
         y="73.811363"
         id="tspan9">GModule</tspan><tspan
         sodipodi:role="line"
         style="stroke-width:0.264583"
         x="160.55984"
         y="87.040482"
         id="tspan10">GIO</tspan></text>
    <rect
       style="fill:none;stroke:#000000;stroke-width:0.4"
       id="rect10"
       width="86.227715"
       height="47.932465"
       x="18.94453"
       y="35.427277"
       rx="10"
       ry="10" />
    <rect
       style="fill:none;stroke:#000000;stroke-width:0.4"
       id="rect11"
       width="61.894695"
       height="61.341282"
       x="152.97017"
       y="35.427277"
       rx="10"
       ry="10" />
  </g>
</svg>
